…
The line we are looking for is:  `- attr(*, "modelVariog")`. The attribute `modelVariog` has 50 rows (obs.) and 2 variables: `$variog` and `$dist`. These are the fitted values (i.e., values of the exponential variogram model for 50 distance values).

The notation `attr(*, "modelVariog")` is a cryptic way of telling us how to access the attribute: use the function `attr` and provide two arguments: the object names `Fitted.variog` (represented by the asterisk), and the name of the attribute, in quotes: `attr(Fitted.variog, "modelVariog")`.


``` r
tibble::as_tibble(attr(Fitted.variog, "modelVariog"))
```

```
## # A tibble: 50 × 2
##    variog  dist
##     <dbl> <dbl>
##  1  0.598  106.
##  2  0.637  385.
##  3  0.673  665.
##  4  0.705  945.
##  5  0.734 1224.
##  6  0.760 1504.
##  7  0.784 1783.
##  8  0.805 2063.
##  9  0.824 2342.
## 10  0.841 2622.
## # ℹ 40 more rows
```
…
``` r
tibble::as_tibble(sfr.res$r)
```

```
## Warning: The `x` argument of `as_tibble.matrix()` must have unique column names if
## `.name_repair` is omitted as of tibble 2.0.0.
## ℹ Using compatibility `.name_repair`.
## This warning is displayed once per session.
## Call `lifecycle::last_lifecycle_warnings()` to see where this warning was
## generated.
```

```
## # A tibble: 27 × 1
##         V1
##      <dbl>
##  1 -0.217 
##  2 -0.0376
##  3 -0.0694
##  4 -0.142 
##  5  0.0776
##  6 -0.370 
##  7 -0.0642
##  8 -0.138 
##  9  0.153 
## 10  0.126 
## # ℹ 17 more rows
```
…
In order to calculate Hanski's index, we first need to optimize the value of alpha for each distance model, using presence-absence data for the two time steps of 1989 and 2009. 

Import the patch-level data for all 106 patches in the study area.


``` r
Patches <- read.csv(system.file("extdata", "PATCH_XY_Dianthus.csv", 
                            package = "LandGenCourse"),
         header=TRUE, row.names=1)
tibble::as_tibble(Patches)
```

```
## # A tibble: 106 × 20
##    patch    id Elements2008 Elements2008.4 cat   type      Ha   area        x
##    <chr> <int>        <int>          <int> <chr> <chr>  <dbl>  <dbl>    <dbl>
##  1 A01       1            1              1 3     A     0.136  0.0014 4431470.
##  2 A02       2            2              2 4     B     0.182  0.0018 4431614.
##  3 A03       3            3              3 4     B     0.206  0.0021 4431320.
##  4 A04       4            0              0 4     B     0.142  0.0014 4431246.
##  5 A05       5            2              2 4     B     0.134  0.0013 4431037.
##  6 A06       6            2              2 4     B     0.201  0.002  4431027.
##  7 A07       7            0              0 3     N     0.0213 0.0002 4431284.
##  8 A07a      8            1              1 4     A     0.200  0.002  4431362.
##  9 A08       9            3              2 5     F     0.464  0.0046 4428814.
## 10 A09      10            4              3 3     F     0.0704 0.0007 4428809.
## # ℹ 96 more rows
## # ℹ 11 more variables: y <dbl>, size.cat <int>, sizeCat <chr>, size.cat2 <chr>,
## #   pj08 <dbl>, pj89 <dbl>, pop09 <int>, grazing <int>, Dc.89 <int>,
## #   Dc.09 <int>, Sampled <int>
```
…
Table with results: values of Si. Column names are a combination of distance matrix and source patch parameter.


``` r
tibble::as_tibble(Si)  
```

```
## # A tibble: 106 × 15
##    Eu_pj Eu_Aj Eu_Nj Shecte_pj Shecte_Aj Shecte_Nj Sheint_pj Sheint_Aj Sheint_Nj
##    <dbl> <dbl> <dbl>     <dbl>     <dbl>     <dbl>     <dbl>     <dbl>     <dbl>
##  1 0.636 1.21   1.76  8.58e-26  1.42e-25  2.47e-25  3.07e-51  5.07e-51  8.83e-51
##  2 0.626 0.616  1.58  8.52e-26  1.42e-25  2.46e-25  3.05e-51  5.06e-51  8.79e-51
##  3 0.943 0.638  2.32  8.52e-26  1.42e-25  2.46e-25  6.20e- 1  2.27e+ 0  2.05e+ 0
##  4 1.27  0.847  3.30  8.52e-26  1.42e-25  2.46e-25  5.02e- 1  7.71e- 1  1.30e+ 0
##  5 1.50  1.13   4.10  1.26e+ 0  3.41e+ 0  4.21e+ 0  5.04e- 1  4.09e- 1  1.29e+ 0
##  6 1.67  1.44   4.91  2.13e+ 0  6.27e+ 0  7.40e+ 0  7.42e- 1  1.19e+ 0  2.43e+ 0
##  7 2.12  1.98   6.50  8.58e-26  1.42e-25  2.47e-25  3.07e-51  5.07e-51  8.83e-51
##  8 1.21  1.62   3.82  2.00e+ 0  6.83e+ 0  7.11e+ 0  8.76e- 1  1.60e+ 0  2.87e+ 0
##  9 1.60  2.99   4.41  8.52e-26  1.41e-25  2.46e-25  1.00e+ 0  2.56e+ 0  3.32e+ 0
## 10 1.82  2.14   4.38  8.52e-26  1.42e-25  2.46e-25  3.28e- 1  3.53e- 1  7.79e- 1
## # ℹ 96 more rows
## # ℹ 6 more variables: Shenu_pj <dbl>, Shenu_Aj <dbl>, Shenu_Nj <dbl>,
## #   Forest_pj <dbl>, Forest_Aj <dbl>, Forest_Nj <dbl>
```
…
