4. Fit models with spatially correlated error (GLS) with package ‘nlme’ | Landscape Genetic Data Analysis with R
…
The line we are looking for is: - attr(*, "modelVariog"). The attribute modelVariog has 50 rows (obs.) and 2 variables: $variog and $dist. These are the fitted values (i.e., values of the exponential variogram model for 50 distance values).

The notation attr(*, "modelVariog") is a cryptic way of telling us how to access the attribute: use the function attr and provide two arguments: the object names Fitted.variog (represented by the asterisk), and the name of the attribute, in quotes: attr(Fitted.variog, "modelVariog").

tibble::as_tibble(attr(Fitted.variog, "modelVariog"))

## # A tibble: 50 × 2
##    variog  dist
##     <dbl> <dbl>
##  1  0.598  106.
##  2  0.637  385.
##  3  0.673  665.
##  4  0.705  945.
##  5  0.734 1224.
##  6  0.760 1504.
##  7  0.784 1783.
##  8  0.805 2063.
##  9  0.824 2342.
## 10  0.841 2622.
## # … with 40 more rows
…
