Worked Example | Landscape Genetic Data Analysis with R
…
2. Estimate genetic and non-genetic variance components from a common garden experiment

Motivation: A lot of genetics can be carried out without use of any molecular markers. Practitioners of empirical population genetics forget this quite often. A common garden allows us to create a standardized environment in which we minimize the influence of environment on the expression of a particular phenotypic trait. Phenotypic variation can be partitioned to genetic , environmental and residual components based on quantitative genetic theory. Further, we may also test for the presence of interaction between the genetic and environmental variation. The rationale of a common garden is to “standardize” the environment, thus phenotypic variation we observe is mainly due to genetic variation, even though environmental heterogeneity can never be completely eliminated and we still have to additionally control for it, e.g. using a block design (see below).

Goals & Background: The goal for this part of the laboratory is to construct, fit, and assess LMMs for \(δ^{13}C\). We will be using the data in the file named “WWP_phenotypic_data.txt.” These data are organized in a tab-delimited text file with seedlings grouped by maternal tree (i.e. its mother tree), plot, and population. Also included is an experimental treatment known as “block.” In a common garden, seedlings from the same maternal tree are randomized among blocks to avoid the influence of micro-environmental variation on expression of phenotypic traits.

a. Import phenytypic data

phen <- read.delim(system.file("extdata", "WWP_phenotype_data.txt", 
                            package = "LandGenCourse"), sep = "\t", header = T)
tibble::as_tibble(phen)

## # A tibble: 779 x 5
##    population plot  family block  d13c
##    <chr>      <chr>  <int> <int> <dbl>
##  1 blk cyn    BC1       59     5 -30.2
##  2 blk cyn    BC1       59     2 -29.7
##  3 blk cyn    BC1       59     4 -29.6
##  4 blk cyn    BC1       59     3 -29.2
##  5 blk cyn    BC1       59     1 -29.0
##  6 blk cyn    BC1       60     4 -31.2
##  7 blk cyn    BC1       60     3 -30.7
##  8 blk cyn    BC1       60     1 -30.5
##  9 blk cyn    BC1       60     5 -30.1
## 10 blk cyn    BC1       60     2 -29.3
## # ... with 769 more rows
…
