5.3 Worked Example | Landscape Genetic Data Analysis with R
…
To calculate a larger set of landscape metrics, you can just use the wrapper calculate_lsm(). The arguments are similar to list_lsm(), e.g. you can specify the level or the type of metrics to calculate. Alternatively, you can also provide a vector with the function names of metrics to calculate to the what argument.

However, watch out, for large rasters and many metrics, this can be rather slow (set progress = TRUE to get an progress report on the console). Also, we suggest to not just calculate all available metrics, but rather think about which ones might be actually suitable for your research question.

Calculate all patch-level metrics using wrapper:

nlcd_patch <- landscapemetrics::calculate_lsm(landscape = RasterMaps$nlcd,
                                              level = "patch")
nlcd_patch

## # A tibble: 19,776 × 6
##    layer level class    id metric value
##    <int> <chr> <int> <int> <chr>  <dbl>
##  1     1 patch    11     1 area    0.45
##  2     1 patch    11     2 area    0.45
##  3     1 patch    11     3 area   41.7 
##  4     1 patch    11     4 area    0.72
##  5     1 patch    11     5 area    6.12
##  6     1 patch    11     6 area    0.9 
##  7     1 patch    11     7 area    0.9 
##  8     1 patch    11     8 area    1.89
##  9     1 patch    11     9 area    0.09
## 10     1 patch    11    10 area    1.17
## # ℹ 19,766 more rows
…
b. Calculate patch-level landscape metrics for ‘Evergreen Forest’

To only get the results for class 42 (evergreen forest), you can just dplyr::filter() the tibble (or use any other subset method you prefer).

forest_patch_metrics <- dplyr::filter(nlcd_patch, class == 42)
forest_patch_metrics

## # A tibble: 2,664 × 6
##    layer level class    id metric   value
##    <int> <chr> <int> <int> <chr>    <dbl>
##  1     1 patch    42   164 area      8.1 
##  2     1 patch    42   165 area      0.18
##  3     1 patch    42   166 area   3180.  
##  4     1 patch    42   167 area      0.27
##  5     1 patch    42   168 area      3.51
##  6     1 patch    42   169 area      1.71
##  7     1 patch    42   170 area      0.18
##  8     1 patch    42   171 area      0.09
##  9     1 patch    42   172 area      0.09
## 10     1 patch    42   173 area      1.98
## # ℹ 2,654 more rows
…
The package landscapemetrics has a built-in function sample_lsm to sample metrics in a buffer around sampling locations, which are provided with argument y. You can choose the shape of the buffer window (either a circle or a square) and, with the argument what, which metrics to sample (similar to calculate_lsm()).

The argument size specifies the buffer size in map units (e.g., meters): radius for circles, half of the side length for squares. Here, the value size = 500 results in a square window of 1000 m x 1000 m centered at the sampling location.

nlcd_sampled <- landscapemetrics::sample_lsm(landscape = RasterMaps$nlcd, 
                                             what = c("lsm_l_ta", 
                                                      "lsm_c_np",
                                                      "lsm_c_pland", 
                                                      "lsm_c_ai"),
                                             shape = "square",
                                             y = Sites.sf, 
                                             size = 500)
nlcd_sampled

## # A tibble: 493 × 8
##    layer level class    id metric value plot_id percentage_inside
##    <int> <chr> <int> <int> <chr>  <dbl>   <int>             <dbl>
##  1     1 class    11    NA ai      88.6       1              98.0
##  2     1 class    31    NA ai      NA         1              98.0
##  3     1 class    42    NA ai      93.3       1              98.0
##  4     1 class    52    NA ai      50         1              98.0
##  5     1 class    71    NA ai      65.9       1              98.0
##  6     1 class    11    NA np       2         1              98.0
##  7     1 class    31    NA np       1         1              98.0
##  8     1 class    42    NA np       2         1              98.0
##  9     1 class    52    NA np       4         1              98.0
## 10     1 class    71    NA np       8         1              98.0
## # ℹ 483 more rows
…
nlcd_sampled_plots <- landscapemetrics::sample_lsm(landscape = RasterMaps$nlcd, 
                                                   what = c("lsm_l_ta",
                                                            "lsm_c_np",
                                                            "lsm_c_pland",
                                                            "lsm_c_ai"),
                                                   shape = "square",
                                                   y = Sites.sf, 
                                                   size = 500, 
                                                   return_raster = TRUE)

nlcd_sampled_plots

## # A tibble: 493 × 9
##    layer level class    id metric value plot_id percentage_inside
##    <int> <chr> <int> <int> <chr>  <dbl>   <int>             <dbl>
##  1     1 class    11    NA ai      88.6       1              98.0
##  2     1 class    31    NA ai      NA         1              98.0
##  3     1 class    42    NA ai      93.3       1              98.0
##  4     1 class    52    NA ai      50         1              98.0
##  5     1 class    71    NA ai      65.9       1              98.0
##  6     1 class    11    NA np       2         1              98.0
##  7     1 class    31    NA np       1         1              98.0
##  8     1 class    42    NA np       2         1              98.0
##  9     1 class    52    NA np       4         1              98.0
## 10     1 class    71    NA np       8         1              98.0
## # ℹ 483 more rows
## # ℹ 1 more variable: raster_sample_plots <list>
…
c. Extract landscape metric of choice for all cover types (as data frame)

To extract the landscape metric ‘prop.landscape’ for all cover types as a tibble, just filter dplyr::filter() the tibble again, but only use the metric as filter.

## f.lter for percentage of landscape
percentage_forest_500_df <- dplyr::filter(nlcd_sampled,
                                          metric == "pland")

percentage_forest_500_df

## # A tibble: 154 × 8
##    layer level class    id metric   value plot_id percentage_inside
##    <int> <chr> <int> <int> <chr>    <dbl>   <int>             <dbl>
##  1     1 class    11    NA pland   7.25         1              98.0
##  2     1 class    31    NA pland   0.0918       1              98.0
##  3     1 class    42    NA pland  77.5          1              98.0
##  4     1 class    52    NA pland   1.93         1              98.0
##  5     1 class    71    NA pland  13.2          1              98.0
##  6     1 class    11    NA pland   3.49         2              98.0
##  7     1 class    12    NA pland   1.01         2              98.0
##  8     1 class    31    NA pland   0.735        2              98.0
##  9     1 class    42    NA pland  39.6          2              98.0
## 10     1 class    52    NA pland   5.33         2              98.0
## # ℹ 144 more rows

The percent cover of all cover types should add up to ~ 100% (i.e., 1) for each site. We can check this with the function dplyr::summarize(). First, we need to group the data using the plot_id, then sum all percentages.

## g.oup by plot_id and sum all percentages
pland_sum_a <- dplyr::summarize(dplyr::group_by(percentage_forest_500_df, 
                                                by = plot_id), 
                                sum_pland = sum(value))
pland_sum_a

## # A tibble: 31 × 2
##       by sum_pland
##    <int>     <dbl>
##  1     1       100
##  2     2       100
##  3     3       100
##  4     4       100
##  5     5       100
##  6     6       100
##  7     7       100
##  8     8       100
##  9     9       100
## 10    10       100
## # ℹ 21 more rows

Same workflow, but using a pipe:

pland_sum_b <- percentage_forest_500_df %>% 
  dplyr::group_by(plot_id) %>% 
  dplyr::summarize(sum_pland = sum(value))
pland_sum_b

## # A tibble: 31 × 2
##    plot_id sum_pland
##      <int>     <dbl>
##  1       1       100
##  2       2       100
##  3       3       100
##  4       4       100
##  5       5       100
##  6       6       100
##  7       7       100
##  8       8       100
##  9       9       100
## 10      10       100
## # ℹ 21 more rows
…
Filterdplyr::filter() for class == 42 and add the sites names as coloumn to the resulting tibble.

## f.lter for class == 42 (forest)
forest_500_df <- dplyr::filter(nlcd_sampled,
                               class == 42)

## d.ta.frame with id and name of site
SiteName_df <- data.frame(id = 1:length(Sites.sf$SiteName), site_name = Sites.sf$SiteName)

## a.d site_name to metrics using plot_id and id of sampling sites
forest_500_df <- dplyr::left_join(forest_500_df, SiteName_df, by = c("plot_id" = "id"))

forest_500_df

## # A tibble: 93 × 9
##    layer level class    id metric value plot_id percentage_inside site_name     
##    <int> <chr> <int> <int> <chr>  <dbl>   <int>             <dbl> <chr>         
##  1     1 class    42    NA ai      93.3       1              98.0 AirplaneLake  
##  2     1 class    42    NA np       2         1              98.0 AirplaneLake  
##  3     1 class    42    NA pland   77.5       1              98.0 AirplaneLake  
##  4     1 class    42    NA ai      89.4       2              98.0 BachelorMeadow
##  5     1 class    42    NA np       7         2              98.0 BachelorMeadow
##  6     1 class    42    NA pland   39.6       2              98.0 BachelorMeadow
##  7     1 class    42    NA ai      79.4       3              98.0 BarkingFoxLake
##  8     1 class    42    NA np      10         3              98.0 BarkingFoxLake
##  9     1 class    42    NA pland   38.0       3              98.0 BarkingFoxLake
## 10     1 class    42    NA ai      81.2       4             104.  BirdbillLake  
## # ℹ 83 more rows
…
