7.3 Worked Example | Landscape Genetic Data Analysis with R
…
?dd.ecogen   

We also import site-level data from Tables 2 - 5 in Lamy et al. (2012). Use ‘?dd.site’ to check helpfile with data set desription of the variables.

data(dd.site, package = "LandGenCourse")
tibble::as_tibble(dd.site)

## # A tibble: 42 × 24
##    SiteID   SITE   YEAR Spatial MultiYear APE   Cluster     n    RA    He      f
##    <chr>    <fct> <int> <lgl>   <lgl>     <lgl> <fct>   <int> <dbl> <dbl>  <dbl>
##  1 PICO2006 PICO   2006 FALSE   TRUE      FALSE <NA>       34  11.2 0.897  0.038
##  2 PICO2007 PICO   2007 FALSE   TRUE      FALSE <NA>       24  11.4 0.911  0.022
##  3 PICO2009 PICO   2009 TRUE    TRUE      FALSE <NA>       32  11.4 0.896  0.024
##  4 ROC2006  ROC    2006 TRUE    TRUE      FALSE <NA>       32  11.2 0.831  0.005
##  5 ROC2007  ROC    2007 FALSE   TRUE      FALSE <NA>       32  11.0 0.82   0.018
##  6 SEN2006  SEN    2006 FALSE   TRUE      FALSE <NA>       32  11.2 0.876 -0.008
##  7 SEN2007  SEN    2007 TRUE    TRUE      FALSE <NA>       30  11.6 0.88   0.046
##  8 VEE2006  VEE    2006 FALSE   TRUE      FALSE <NA>       31  10.5 0.864  0.034
##  9 VEE2007  VEE    2007 FALSE   TRUE      FALSE <NA>       32  11.3 0.854  0.044
## 10 VEE2008  VEE    2008 TRUE    TRUE      FALSE <NA>       31  11.2 0.871  0.014
## # … with 32 more rows, and 13 more variables: s <dbl>, Type <fct>,
## #   FST.GESTE <dbl>, Size <dbl>, V <dbl>, C <dbl>, Stab <dbl>, D <int>,
## #   APA <int>, NLT <dbl>, Fst.temp <dbl>, Longitude <dbl>, Latitude <dbl>
…
