8.3 Worked Example | Landscape Genetic Data Analysis with R
…
#Frogs.gstudio <- EcoGenetics::ecogen2gstudio(Frogs.ecogen, type="codominant")

  dat <- eco.convert(Frogs.ecogen@G, "matrix", sep.in = ":", sep.out = ":")
  dat <- as.data.frame(dat, stringsAsFactors = FALSE)
  for (i in 1:ncol(dat)) {
     class(dat[, i]) <- "locus"
  }
  dat[is.na(dat)] <- gstudio::locus(NA)
  colnames(dat) <- colnames(Frogs.ecogen@G)

Frogs.gstudio <- data.frame(ecoslot.S(Frogs.ecogen), dat)
tibble::as_tibble(Frogs.gstudio)        

## # A tibble: 413 × 10
##    SiteName     Pop      A       B       C       D       E     F     G     H    
##    <fct>        <fct>    <locus> <locus> <locus> <locus> <loc> <loc> <loc> <loc>
##  1 AirplaneLake Airplane 1:1     1:1     1:1     1:1     1:2   1:1   1:1   4:5  
##  2 AirplaneLake Airplane 2:2     1:1             1:1     1:1         2:2        
##  3 AirplaneLake Airplane 1:1     1:1     1:1     1:1     3:3   1:1   1:1   3:3  
##  4 AirplaneLake Airplane 1:1     1:1             2:2     1:2                    
##  5 AirplaneLake Airplane 1:2     1:3     1:1     1:1     1:2   1:1   1:2   4:5  
##  6 AirplaneLake Airplane 1:2     1:1     1:1     1:3     1:1   1:1   1:2   4:5  
##  7 AirplaneLake Airplane 2:2     1:3     1:1     1:1     3:3   1:1   1:1   2:3  
##  8 AirplaneLake Airplane 2:2     1:3     1:1     1:1     3:3   1:1   1:1   2:3  
##  9 AirplaneLake Airplane 1:3     1:1     1:1     1:1     1:7   1:1   1:1   3:5  
## 10 AirplaneLake Airplane 2:2     1:3     1:1     1:1     3:7   1:1   1:1   3:3  
## # … with 403 more rows
…
