10.3 Worked Example | Landscape Genetic Data Analysis with R
…
The line we are looking for is: - attr(*, "modelVariog"). The attribute modelVariog has 50 rows (obs.) and 2 variables: $variog and $dist. These are the fitted values (i.e., values of the exponential variogram model for 50 distance values).

The notation attr(*, "modelVariog") is a cryptic way of telling us how to access the attribute: use the function attr and provide two arguments: the object names Fitted.variog (represented by the asterisk), and the name of the attribute, in quotes: attr(Fitted.variog, "modelVariog").

tibble::as_tibble(attr(Fitted.variog, "modelVariog"))

## # A tibble: 50 × 2
##    variog  dist
##     <dbl> <dbl>
##  1  0.598  106.
##  2  0.637  385.
##  3  0.673  665.
##  4  0.705  945.
##  5  0.734 1224.
##  6  0.760 1504.
##  7  0.784 1783.
##  8  0.805 2063.
##  9  0.824 2342.
## 10  0.841 2622.
## # ℹ 40 more rows
…
The previous model selected 15 MEM spatial eigenvectors, and thus fitted 15 additional models. Just like the random effects for family and population in Week 6 lab, we can save a few parameters here by fitting the set of MEM eigenvectors as a random effect. This is done by the function ‘resf’.

sfr.res <- spmoran::resf( y=Dianthus.df$A, x=Dianthus.df[,c("PatchSize", "IBR")], 
               meig = meigw, method = "reml" ) 
sfr.res$b

##               Estimate         SE   t_value    p_value
## (Intercept) 4.06902707 0.06645938 61.225772 0.00000000
## PatchSize   0.04247164 0.01652051  2.570843 0.01344639
## IBR         0.08489102 0.08467569  1.002543 0.32132725

tibble::as_tibble(sfr.res$r)

## # A tibble: 27 × 1
##      value
##      <dbl>
##  1 -0.191 
##  2 -0.0314
##  3 -0.0601
##  4 -0.124 
##  5  0.0640
##  6 -0.312 
##  7 -0.0576
##  8 -0.113 
##  9  0.128 
## 10  0.105 
## # ℹ 17 more rows
…
